^C:\USERS\BOOZER\DOCUMENTS\-=SCHOOL=-\DROPBOX\SEMESTER 3\C++ PROGRAMMING I (CSC215)\C++\W2-DISC-BUBBLE_SORT\W2-DISC-BUBBLE_SORT\SOURCE.CPP|C:\USERS\BOOZER\DOCUMENTS\-=SCHOOL=-\DROPBOX\SEMESTER 3\C++ PROGRAMMING I (CSC215)\C++\WEEK 1 - ASSIGNMENT - 4_36\WEEK 1 - ASSIGNMENT - 4_36\ENCRYPTION.CPP
C:\USERS\BOOZER\DOCUMENTS\-=SCHOOL=-\DROPBOX\SEMESTER 3\C++ PROGRAMMING I (CSC215)\C++\W2-DISC-BUBBLE_SORT\W2-DISC-BUBBLE_SORT\DEBUG\ENCRYPTION.OBJ
^C:\USERS\BOOZER\DOCUMENTS\-=SCHOOL=-\DROPBOX\SEMESTER 3\C++ PROGRAMMING I (CSC215)\C++\WEEK 1 - ASSIGNMENT - 4_36\WEEK 1 - ASSIGNMENT - 4_36\ENCRYPTION.CPP
C:\USERS\BOOZER\DOCUMENTS\-=SCHOOL=-\DROPBOX\SEMESTER 3\C++ PROGRAMMING I (CSC215)\C++\W2-DISC-BUBBLE_SORT\W2-DISC-BUBBLE_SORT\DEBUG\VC110.PDB
^C:\USERS\BOOZER\DOCUMENTS\-=SCHOOL=-\DROPBOX\SEMESTER 3\C++ PROGRAMMING I (CSC215)\C++\W2-DISC-BUBBLE_SORT\W2-DISC-BUBBLE_SORT\SOURCE.CPP
C:\USERS\BOOZER\DOCUMENTS\-=SCHOOL=-\DROPBOX\SEMESTER 3\C++ PROGRAMMING I (CSC215)\C++\W2-DISC-BUBBLE_SORT\W2-DISC-BUBBLE_SORT\DEBUG\VC110.PDB
C:\USERS\BOOZER\DOCUMENTS\-=SCHOOL=-\DROPBOX\SEMESTER 3\C++ PROGRAMMING I (CSC215)\C++\W2-DISC-BUBBLE_SORT\W2-DISC-BUBBLE_SORT\DEBUG\SOURCE.OBJ
