^C:\USERS\BOOZER\DOCUMENTS\VISUAL STUDIO 2012\PROJECTS\WEEK 2 - ASSIGNMENT - 21_26\WEEK 2 - ASSIGNMENT - 21_26\DEBUG\W2-A-21_26.OBJ
/OUT:"C:\USERS\BOOZER\DOCUMENTS\VISUAL STUDIO 2012\PROJECTS\WEEK 2 - ASSIGNMENT - 21_26\DEBUG\WEEK 2 - ASSIGNMENT - 21_26.EXE" /INCREMENTAL /NOLOGO kernel32.lib user32.lib gdi32.lib winspool.lib comdlg32.lib advapi32.lib shell32.lib ole32.lib oleaut32.lib uuid.lib odbc32.lib odbccp32.lib /MANIFEST /MANIFESTUAC:"level='asInvoker' uiAccess='false'" /manifest:embed /DEBUG /PDB:"C:\USERS\BOOZER\DOCUMENTS\VISUAL STUDIO 2012\PROJECTS\WEEK 2 - ASSIGNMENT - 21_26\DEBUG\WEEK 2 - ASSIGNMENT - 21_26.PDB" /TLBID:1 /DYNAMICBASE /NXCOMPAT /IMPLIB:"C:\USERS\BOOZER\DOCUMENTS\VISUAL STUDIO 2012\PROJECTS\WEEK 2 - ASSIGNMENT - 21_26\DEBUG\WEEK 2 - ASSIGNMENT - 21_26.LIB" /MACHINE:X86 "DEBUG\W2-A-21_26.OBJ"
^C:\USERS\BOOZER\DOCUMENTS\-=SCHOOL=-\DROPBOX\C++\WEEK 2 - ASSIGNMENT - 21_26\WEEK 2 - ASSIGNMENT - 21_26\DEBUG\W2-A-21_26.OBJ
/OUT:"C:\USERS\BOOZER\DOCUMENTS\-=SCHOOL=-\DROPBOX\C++\WEEK 2 - ASSIGNMENT - 21_26\DEBUG\WEEK 2 - ASSIGNMENT - 21_26.EXE" /INCREMENTAL /NOLOGO kernel32.lib user32.lib gdi32.lib winspool.lib comdlg32.lib advapi32.lib shell32.lib ole32.lib oleaut32.lib uuid.lib odbc32.lib odbccp32.lib /MANIFEST /MANIFESTUAC:"level='asInvoker' uiAccess='false'" /manifest:embed /DEBUG /PDB:"C:\USERS\BOOZER\DOCUMENTS\-=SCHOOL=-\DROPBOX\C++\WEEK 2 - ASSIGNMENT - 21_26\DEBUG\WEEK 2 - ASSIGNMENT - 21_26.PDB" /TLBID:1 /DYNAMICBASE /NXCOMPAT /IMPLIB:"C:\USERS\BOOZER\DOCUMENTS\-=SCHOOL=-\DROPBOX\C++\WEEK 2 - ASSIGNMENT - 21_26\DEBUG\WEEK 2 - ASSIGNMENT - 21_26.LIB" /MACHINE:X86 "DEBUG\W2-A-21_26.OBJ"
^C:\USERS\BOOZER\DOCUMENTS\-=SCHOOL=-\DROPBOX\C++\WEEK 2 - ASSIGNMENT - 21_26\WEEK 2 - ASSIGNMENT - 21_26\DEBUG\SUBSTITUTIONS.OBJ|C:\USERS\BOOZER\DOCUMENTS\-=SCHOOL=-\DROPBOX\C++\WEEK 2 - ASSIGNMENT - 21_26\WEEK 2 - ASSIGNMENT - 21_26\DEBUG\W2-A-21_26.OBJ
/OUT:"C:\USERS\BOOZER\DOCUMENTS\-=SCHOOL=-\DROPBOX\C++\WEEK 2 - ASSIGNMENT - 21_26\DEBUG\WEEK 2 - ASSIGNMENT - 21_26.EXE" /INCREMENTAL /NOLOGO kernel32.lib user32.lib gdi32.lib winspool.lib comdlg32.lib advapi32.lib shell32.lib ole32.lib oleaut32.lib uuid.lib odbc32.lib odbccp32.lib /MANIFEST /MANIFESTUAC:"level='asInvoker' uiAccess='false'" /manifest:embed /DEBUG /PDB:"C:\USERS\BOOZER\DOCUMENTS\-=SCHOOL=-\DROPBOX\C++\WEEK 2 - ASSIGNMENT - 21_26\DEBUG\WEEK 2 - ASSIGNMENT - 21_26.PDB" /TLBID:1 /DYNAMICBASE /NXCOMPAT /IMPLIB:"C:\USERS\BOOZER\DOCUMENTS\-=SCHOOL=-\DROPBOX\C++\WEEK 2 - ASSIGNMENT - 21_26\DEBUG\WEEK 2 - ASSIGNMENT - 21_26.LIB" /MACHINE:X86 DEBUG\SUBSTITUTIONS.OBJ"DEBUG\W2-A-21_26.OBJ"
