^C:\USERS\BOOZER\DOCUMENTS\-=SCHOOL=-\DROPBOX\SEMESTER 3\C++ PROGRAMMING I (CSC215)\C++\WEEK 3 - ASSIGNMENT - 8_11\WEEK 3 - ASSIGNMENT - 8_11\WEEK 3 - ASSIGNMENT - 8_11-A.CPP
/c /ZI /nologo /W3 /WX- /sdl /Od /Oy- /D WIN32 /D _DEBUG /D _CONSOLE /D _UNICODE /D UNICODE /Gm /EHsc /RTC1 /MDd /GS /fp:precise /Zc:wchar_t /Zc:forScope /Fo"DEBUG\\" /Fd"DEBUG\VC110.PDB" /Gd /TP /analyze- C:\USERS\BOOZER\DOCUMENTS\-=SCHOOL=-\DROPBOX\SEMESTER 3\C++ PROGRAMMING I (CSC215)\C++\WEEK 3 - ASSIGNMENT - 8_11\WEEK 3 - ASSIGNMENT - 8_11\WEEK 3 - ASSIGNMENT - 8_11-A.CPP
^C:\USERS\BOOZER\DOCUMENTS\-=SCHOOL=-\DROPBOX\SEMESTER 3\C++ PROGRAMMING I (CSC215)\C++\WEEK 3 - ASSIGNMENT - 8_11\WEEK 3 - ASSIGNMENT - 8_11\WEEK 3 - ASSIGNMENT - 8_11-B.CPP
/c /ZI /nologo /W3 /WX- /sdl /Od /Oy- /D WIN32 /D _DEBUG /D _CONSOLE /D _UNICODE /D UNICODE /Gm /EHsc /RTC1 /MDd /GS /fp:precise /Zc:wchar_t /Zc:forScope /Fo"DEBUG\\" /Fd"DEBUG\VC110.PDB" /Gd /TP /analyze- C:\USERS\BOOZER\DOCUMENTS\-=SCHOOL=-\DROPBOX\SEMESTER 3\C++ PROGRAMMING I (CSC215)\C++\WEEK 3 - ASSIGNMENT - 8_11\WEEK 3 - ASSIGNMENT - 8_11\WEEK 3 - ASSIGNMENT - 8_11-B.CPP
^C:\USERS\BOOZER\DOCUMENTS\-=SCHOOL=-\DROPBOX\SEMESTER 3\C++ PROGRAMMING I (CSC215)\C++\WEEK 3 - ASSIGNMENT - 8_11\WEEK 3 - ASSIGNMENT - 8_11\WEEK 3 - ASSIGNMENT - 8_11-C.CPP
/c /ZI /nologo /W3 /WX- /sdl /Od /Oy- /D WIN32 /D _DEBUG /D _CONSOLE /D _UNICODE /D UNICODE /Gm /EHsc /RTC1 /MDd /GS /fp:precise /Zc:wchar_t /Zc:forScope /Fo"DEBUG\\" /Fd"DEBUG\VC110.PDB" /Gd /TP /analyze- C:\USERS\BOOZER\DOCUMENTS\-=SCHOOL=-\DROPBOX\SEMESTER 3\C++ PROGRAMMING I (CSC215)\C++\WEEK 3 - ASSIGNMENT - 8_11\WEEK 3 - ASSIGNMENT - 8_11\WEEK 3 - ASSIGNMENT - 8_11-C.CPP
^C:\USERS\BOOZER\DOCUMENTS\-=SCHOOL=-\DROPBOX\SEMESTER 3\C++ PROGRAMMING I (CSC215)\C++\WEEK 3 - ASSIGNMENT - 8_11\WEEK 3 - ASSIGNMENT - 8_11\WEEK 3 - ASSIGNMENT - 8_11-D.CPP
/c /ZI /nologo /W3 /WX- /sdl /Od /Oy- /D WIN32 /D _DEBUG /D _CONSOLE /D _UNICODE /D UNICODE /Gm /EHsc /RTC1 /MDd /GS /fp:precise /Zc:wchar_t /Zc:forScope /Fo"DEBUG\\" /Fd"DEBUG\VC110.PDB" /Gd /TP /analyze- C:\USERS\BOOZER\DOCUMENTS\-=SCHOOL=-\DROPBOX\SEMESTER 3\C++ PROGRAMMING I (CSC215)\C++\WEEK 3 - ASSIGNMENT - 8_11\WEEK 3 - ASSIGNMENT - 8_11\WEEK 3 - ASSIGNMENT - 8_11-D.CPP
^C:\USERS\BOOZER\DOCUMENTS\-=SCHOOL=-\DROPBOX\SEMESTER 3\C++ PROGRAMMING I (CSC215)\C++\WEEK 3 - ASSIGNMENT - 8_11\WEEK 3 - ASSIGNMENT - 8_11\WEEK 3 - ASSIGNMENT - 8_11-E.CPP
/c /ZI /nologo /W3 /WX- /sdl /Od /Oy- /D WIN32 /D _DEBUG /D _CONSOLE /D _UNICODE /D UNICODE /Gm /EHsc /RTC1 /MDd /GS /fp:precise /Zc:wchar_t /Zc:forScope /Fo"DEBUG\\" /Fd"DEBUG\VC110.PDB" /Gd /TP /analyze- C:\USERS\BOOZER\DOCUMENTS\-=SCHOOL=-\DROPBOX\SEMESTER 3\C++ PROGRAMMING I (CSC215)\C++\WEEK 3 - ASSIGNMENT - 8_11\WEEK 3 - ASSIGNMENT - 8_11\WEEK 3 - ASSIGNMENT - 8_11-E.CPP
^C:\USERS\BOOZER\DOCUMENTS\-=SCHOOL=-\DROPBOX\SEMESTER 3\C++ PROGRAMMING I (CSC215)\C++\WEEK 3 - ASSIGNMENT - 8_11\WEEK 3 - ASSIGNMENT - 8_11\WEEK 3 - ASSIGNMENT - 8_11-F.CPP
/c /ZI /nologo /W3 /WX- /sdl /Od /Oy- /D WIN32 /D _DEBUG /D _CONSOLE /D _UNICODE /D UNICODE /Gm /EHsc /RTC1 /MDd /GS /fp:precise /Zc:wchar_t /Zc:forScope /Fo"DEBUG\\" /Fd"DEBUG\VC110.PDB" /Gd /TP /analyze- C:\USERS\BOOZER\DOCUMENTS\-=SCHOOL=-\DROPBOX\SEMESTER 3\C++ PROGRAMMING I (CSC215)\C++\WEEK 3 - ASSIGNMENT - 8_11\WEEK 3 - ASSIGNMENT - 8_11\WEEK 3 - ASSIGNMENT - 8_11-F.CPP
^C:\USERS\BOOZER\DOCUMENTS\-=SCHOOL=-\DROPBOX\SEMESTER 3\C++ PROGRAMMING I (CSC215)\C++\WEEK 3 - ASSIGNMENT - 8_11\WEEK 3 - ASSIGNMENT - 8_11\WEEK 3 - ASSIGNMENT - 8_11.CPP
/c /ZI /nologo /W3 /WX- /sdl /Od /Oy- /D WIN32 /D _DEBUG /D _CONSOLE /D _UNICODE /D UNICODE /Gm /EHsc /RTC1 /MDd /GS /fp:precise /Zc:wchar_t /Zc:forScope /Fo"DEBUG\\" /Fd"DEBUG\VC110.PDB" /Gd /TP /analyze- C:\USERS\BOOZER\DOCUMENTS\-=SCHOOL=-\DROPBOX\SEMESTER 3\C++ PROGRAMMING I (CSC215)\C++\WEEK 3 - ASSIGNMENT - 8_11\WEEK 3 - ASSIGNMENT - 8_11\WEEK 3 - ASSIGNMENT - 8_11.CPP
