^C:\USERS\BOOZER\DOCUMENTS\VISUAL STUDIO 2012\PROJECTS\W1-A-17_26\W1-A-17_26\W1-A-17_26.CPP
/c /ZI /nologo /W3 /WX- /sdl /Od /Oy- /D _MBCS /Gm /EHsc /RTC1 /MDd /GS /fp:precise /Zc:wchar_t /Zc:forScope /Fo"DEBUG\\" /Fd"DEBUG\VC110.PDB" /Gd /TP /analyze- C:\USERS\BOOZER\DOCUMENTS\VISUAL STUDIO 2012\PROJECTS\W1-A-17_26\W1-A-17_26\W1-A-17_26.CPP
^C:\USERS\BOOZER\DOCUMENTS\-=SCHOOL=-\DROPBOX\C++\WEEK 1 - ASSIGNMENT - 17_26\W1-A-17_26\W1-A-17_26.CPP
/c /ZI /nologo /W3 /WX- /sdl /Od /Oy- /D _MBCS /Gm /EHsc /RTC1 /MDd /GS /fp:precise /Zc:wchar_t /Zc:forScope /Fo"DEBUG\\" /Fd"DEBUG\VC110.PDB" /Gd /TP /analyze- C:\USERS\BOOZER\DOCUMENTS\-=SCHOOL=-\DROPBOX\C++\WEEK 1 - ASSIGNMENT - 17_26\W1-A-17_26\W1-A-17_26.CPP
