^C:\USERS\BOOZER\DOCUMENTS\-=SCHOOL=-\DROPBOX\C++\WEEK 1 - ASSIGNMENT - 17_26\W1-A-17_26\W1-A-17_26.CPP
C:\USERS\BOOZER\DOCUMENTS\-=SCHOOL=-\DROPBOX\C++\WEEK 1 - ASSIGNMENT - 17_26\W1-A-17_26\DEBUG\VC110.PDB
C:\USERS\BOOZER\DOCUMENTS\-=SCHOOL=-\DROPBOX\C++\WEEK 1 - ASSIGNMENT - 17_26\W1-A-17_26\DEBUG\W1-A-17_26.OBJ
