^C:\USERS\BOOZER\DOCUMENTS\-=SCHOOL=-\DROPBOX\C++\WEEK 4 - ASSIGNMENT - 15_25\WEEK 4 - ASSIGNMENT - 15_25\W4-A-15_25.CPP
C:\USERS\BOOZER\DOCUMENTS\-=SCHOOL=-\DROPBOX\C++\WEEK 4 - ASSIGNMENT - 15_25\WEEK 4 - ASSIGNMENT - 15_25\DEBUG\W4-A-15_25.OBJ
C:\USERS\BOOZER\DOCUMENTS\-=SCHOOL=-\DROPBOX\C++\WEEK 4 - ASSIGNMENT - 15_25\WEEK 4 - ASSIGNMENT - 15_25\DEBUG\VC110.PDB
